[2024-06-16T03:50:02.770+0000] {local_task_job_runner.py:120} INFO - ::group::Pre task execution logs
[2024-06-16T03:50:02.857+0000] {taskinstance.py:2076} INFO - Dependencies all met for dep_context=non-requeueable deps ti=<TaskInstance: postgres_to_bigquery_x11.extract_order_details scheduled__2024-06-15T00:00:00+00:00 [queued]>
[2024-06-16T03:50:02.914+0000] {taskinstance.py:2076} INFO - Dependencies all met for dep_context=requeueable deps ti=<TaskInstance: postgres_to_bigquery_x11.extract_order_details scheduled__2024-06-15T00:00:00+00:00 [queued]>
[2024-06-16T03:50:02.919+0000] {taskinstance.py:2306} INFO - Starting attempt 1 of 2
[2024-06-16T03:50:02.960+0000] {taskinstance.py:2330} INFO - Executing <Task(PythonOperator): extract_order_details> on 2024-06-15 00:00:00+00:00
[2024-06-16T03:50:02.975+0000] {warnings.py:112} WARNING - /home/***/.local/lib/python3.12/site-packages/***/task/task_runner/standard_task_runner.py:61: DeprecationWarning: This process (pid=1678) is multi-threaded, use of fork() may lead to deadlocks in the child.
  pid = os.fork()

[2024-06-16T03:50:03.006+0000] {standard_task_runner.py:63} INFO - Started process 1706 to run task
[2024-06-16T03:50:03.014+0000] {standard_task_runner.py:90} INFO - Running: ['***', 'tasks', 'run', 'postgres_to_bigquery_x11', 'extract_order_details', 'scheduled__2024-06-15T00:00:00+00:00', '--job-id', '141', '--raw', '--subdir', 'DAGS_FOLDER/dag_bigquery.py', '--cfg-path', '/tmp/tmpk3q0q5l0']
[2024-06-16T03:50:03.020+0000] {standard_task_runner.py:91} INFO - Job 141: Subtask extract_order_details
[2024-06-16T03:50:03.668+0000] {task_command.py:426} INFO - Running <TaskInstance: postgres_to_bigquery_x11.extract_order_details scheduled__2024-06-15T00:00:00+00:00 [running]> on host 935fe69a44b7
[2024-06-16T03:50:04.104+0000] {taskinstance.py:2648} INFO - Exporting env vars: AIRFLOW_CTX_DAG_OWNER='***' AIRFLOW_CTX_DAG_ID='postgres_to_bigquery_x11' AIRFLOW_CTX_TASK_ID='extract_order_details' AIRFLOW_CTX_EXECUTION_DATE='2024-06-15T00:00:00+00:00' AIRFLOW_CTX_TRY_NUMBER='1' AIRFLOW_CTX_DAG_RUN_ID='scheduled__2024-06-15T00:00:00+00:00'
[2024-06-16T03:50:04.134+0000] {taskinstance.py:430} INFO - ::endgroup::
[2024-06-16T03:50:04.193+0000] {base.py:84} INFO - Using connection ID 'postgres_conn' for task execution.
[2024-06-16T03:50:04.362+0000] {base.py:84} INFO - Using connection ID 'bigquery_conn' for task execution.
[2024-06-16T03:50:05.914+0000] {gcs.py:560} INFO - File /tmp/tmpvl7l7orl uploaded to order_details.json in ds_sklola_bucket bucket
[2024-06-16T03:50:05.948+0000] {python.py:237} INFO - Done. Returned value was: None
[2024-06-16T03:50:05.950+0000] {taskinstance.py:441} INFO - ::group::Post task execution logs
[2024-06-16T03:50:05.958+0000] {taskinstance.py:1206} INFO - Marking task as SUCCESS. dag_id=postgres_to_bigquery_x11, task_id=extract_order_details, run_id=scheduled__2024-06-15T00:00:00+00:00, execution_date=20240615T000000, start_date=20240616T035002, end_date=20240616T035005
[2024-06-16T03:50:05.984+0000] {local_task_job_runner.py:240} INFO - Task exited with return code 0
[2024-06-16T03:50:06.030+0000] {taskinstance.py:3503} INFO - 1 downstream tasks scheduled from follow-on schedule check
[2024-06-16T03:50:06.032+0000] {local_task_job_runner.py:222} INFO - ::endgroup::
