[2024-06-16T03:55:14.448+0000] {local_task_job_runner.py:120} INFO - ::group::Pre task execution logs
[2024-06-16T03:55:14.465+0000] {taskinstance.py:2076} INFO - Dependencies all met for dep_context=non-requeueable deps ti=<TaskInstance: postgres_to_bigquery_x11.load_categories_to_bigquery scheduled__2024-06-15T00:00:00+00:00 [queued]>
[2024-06-16T03:55:14.471+0000] {taskinstance.py:2076} INFO - Dependencies all met for dep_context=requeueable deps ti=<TaskInstance: postgres_to_bigquery_x11.load_categories_to_bigquery scheduled__2024-06-15T00:00:00+00:00 [queued]>
[2024-06-16T03:55:14.476+0000] {taskinstance.py:2306} INFO - Starting attempt 2 of 2
[2024-06-16T03:55:14.499+0000] {taskinstance.py:2330} INFO - Executing <Task(PythonOperator): load_categories_to_bigquery> on 2024-06-15 00:00:00+00:00
[2024-06-16T03:55:14.510+0000] {warnings.py:112} WARNING - /home/***/.local/lib/python3.12/site-packages/***/task/task_runner/standard_task_runner.py:61: DeprecationWarning: This process (pid=1811) is multi-threaded, use of fork() may lead to deadlocks in the child.
  pid = os.fork()

[2024-06-16T03:55:14.513+0000] {standard_task_runner.py:63} INFO - Started process 1835 to run task
[2024-06-16T03:55:14.512+0000] {standard_task_runner.py:90} INFO - Running: ['***', 'tasks', 'run', 'postgres_to_bigquery_x11', 'load_categories_to_bigquery', 'scheduled__2024-06-15T00:00:00+00:00', '--job-id', '167', '--raw', '--subdir', 'DAGS_FOLDER/dag_bigquery.py', '--cfg-path', '/tmp/tmpvgfc4kmq']
[2024-06-16T03:55:14.521+0000] {standard_task_runner.py:91} INFO - Job 167: Subtask load_categories_to_bigquery
[2024-06-16T03:55:14.577+0000] {task_command.py:426} INFO - Running <TaskInstance: postgres_to_bigquery_x11.load_categories_to_bigquery scheduled__2024-06-15T00:00:00+00:00 [running]> on host 935fe69a44b7
[2024-06-16T03:55:14.642+0000] {taskinstance.py:2648} INFO - Exporting env vars: AIRFLOW_CTX_DAG_OWNER='***' AIRFLOW_CTX_DAG_ID='postgres_to_bigquery_x11' AIRFLOW_CTX_TASK_ID='load_categories_to_bigquery' AIRFLOW_CTX_EXECUTION_DATE='2024-06-15T00:00:00+00:00' AIRFLOW_CTX_TRY_NUMBER='2' AIRFLOW_CTX_DAG_RUN_ID='scheduled__2024-06-15T00:00:00+00:00'
[2024-06-16T03:55:14.644+0000] {taskinstance.py:430} INFO - ::endgroup::
[2024-06-16T03:55:14.661+0000] {taskinstance.py:441} INFO - ::group::Post task execution logs
[2024-06-16T03:55:14.663+0000] {taskinstance.py:2905} ERROR - Task failed with exception
Traceback (most recent call last):
  File "/home/airflow/.local/lib/python3.12/site-packages/airflow/models/taskinstance.py", line 465, in _execute_task
    result = _execute_callable(context=context, **execute_callable_kwargs)
             ^^^^^^^^^^^^^^^^^^^^^^^^^^^^^^^^^^^^^^^^^^^^^^^^^^^^^^^^^^^^^
  File "/home/airflow/.local/lib/python3.12/site-packages/airflow/models/taskinstance.py", line 432, in _execute_callable
    return execute_callable(context=context, **execute_callable_kwargs)
           ^^^^^^^^^^^^^^^^^^^^^^^^^^^^^^^^^^^^^^^^^^^^^^^^^^^^^^^^^^^^
  File "/home/airflow/.local/lib/python3.12/site-packages/airflow/models/baseoperator.py", line 401, in wrapper
    return func(self, *args, **kwargs)
           ^^^^^^^^^^^^^^^^^^^^^^^^^^^
  File "/home/airflow/.local/lib/python3.12/site-packages/airflow/operators/python.py", line 235, in execute
    return_value = self.execute_callable()
                   ^^^^^^^^^^^^^^^^^^^^^^^
  File "/home/airflow/.local/lib/python3.12/site-packages/airflow/operators/python.py", line 252, in execute_callable
    return self.python_callable(*self.op_args, **self.op_kwargs)
           ^^^^^^^^^^^^^^^^^^^^^^^^^^^^^^^^^^^^^^^^^^^^^^^^^^^^^
  File "/opt/airflow/dags/dag_bigquery.py", line 95, in create_bigquery_external_table
    external_table_destination=f'{project_id}.{dataset}.{table_name}_external',
                                               ^^^^^^^
NameError: name 'dataset' is not defined
[2024-06-16T03:55:14.671+0000] {taskinstance.py:1206} INFO - Marking task as FAILED. dag_id=postgres_to_bigquery_x11, task_id=load_categories_to_bigquery, run_id=scheduled__2024-06-15T00:00:00+00:00, execution_date=20240615T000000, start_date=20240616T035514, end_date=20240616T035514
[2024-06-16T03:55:14.679+0000] {standard_task_runner.py:110} ERROR - Failed to execute job 167 for task load_categories_to_bigquery (name 'dataset' is not defined; 1835)
[2024-06-16T03:55:14.705+0000] {local_task_job_runner.py:240} INFO - Task exited with return code 1
[2024-06-16T03:55:14.719+0000] {taskinstance.py:3503} INFO - 0 downstream tasks scheduled from follow-on schedule check
[2024-06-16T03:55:14.722+0000] {local_task_job_runner.py:222} INFO - ::endgroup::
