[2024-06-16T13:45:14.177+0000] {local_task_job_runner.py:120} INFO - ::group::Pre task execution logs
[2024-06-16T13:45:14.208+0000] {taskinstance.py:2076} INFO - Dependencies all met for dep_context=non-requeueable deps ti=<TaskInstance: extract_load_dag_x18.load_regions manual__2024-06-16T13:44:59.442086+00:00 [queued]>
[2024-06-16T13:45:14.227+0000] {taskinstance.py:2076} INFO - Dependencies all met for dep_context=requeueable deps ti=<TaskInstance: extract_load_dag_x18.load_regions manual__2024-06-16T13:44:59.442086+00:00 [queued]>
[2024-06-16T13:45:14.230+0000] {taskinstance.py:2306} INFO - Starting attempt 1 of 1
[2024-06-16T13:45:14.256+0000] {taskinstance.py:2330} INFO - Executing <Task(PythonOperator): load_regions> on 2024-06-16 13:44:59.442086+00:00
[2024-06-16T13:45:14.275+0000] {warnings.py:112} WARNING - /home/***/.local/lib/python3.12/site-packages/***/task/task_runner/standard_task_runner.py:61: DeprecationWarning: This process (pid=10134) is multi-threaded, use of fork() may lead to deadlocks in the child.
  pid = os.fork()

[2024-06-16T13:45:14.278+0000] {standard_task_runner.py:63} INFO - Started process 10155 to run task
[2024-06-16T13:45:14.295+0000] {standard_task_runner.py:90} INFO - Running: ['***', 'tasks', 'run', 'extract_load_dag_x18', 'load_regions', 'manual__2024-06-16T13:44:59.442086+00:00', '--job-id', '475', '--raw', '--subdir', 'DAGS_FOLDER/dag_postgre_to_bigquery.py', '--cfg-path', '/tmp/tmphyv2m45f']
[2024-06-16T13:45:14.307+0000] {standard_task_runner.py:91} INFO - Job 475: Subtask load_regions
[2024-06-16T13:45:14.508+0000] {task_command.py:426} INFO - Running <TaskInstance: extract_load_dag_x18.load_regions manual__2024-06-16T13:44:59.442086+00:00 [running]> on host 935fe69a44b7
[2024-06-16T13:45:14.720+0000] {taskinstance.py:2648} INFO - Exporting env vars: AIRFLOW_CTX_DAG_OWNER='***' AIRFLOW_CTX_DAG_ID='extract_load_dag_x18' AIRFLOW_CTX_TASK_ID='load_regions' AIRFLOW_CTX_EXECUTION_DATE='2024-06-16T13:44:59.442086+00:00' AIRFLOW_CTX_TRY_NUMBER='1' AIRFLOW_CTX_DAG_RUN_ID='manual__2024-06-16T13:44:59.442086+00:00'
[2024-06-16T13:45:14.722+0000] {taskinstance.py:430} INFO - ::endgroup::
[2024-06-16T13:45:14.783+0000] {base.py:84} INFO - Using connection ID 'bigquery_conn' for task execution.
[2024-06-16T13:45:21.528+0000] {python.py:237} INFO - Done. Returned value was: None
[2024-06-16T13:45:21.532+0000] {taskinstance.py:441} INFO - ::group::Post task execution logs
[2024-06-16T13:45:21.611+0000] {taskinstance.py:1206} INFO - Marking task as SUCCESS. dag_id=extract_load_dag_x18, task_id=load_regions, run_id=manual__2024-06-16T13:44:59.442086+00:00, execution_date=20240616T134459, start_date=20240616T134514, end_date=20240616T134521
[2024-06-16T13:45:21.685+0000] {local_task_job_runner.py:240} INFO - Task exited with return code 0
[2024-06-16T13:45:21.775+0000] {taskinstance.py:3503} INFO - 1 downstream tasks scheduled from follow-on schedule check
[2024-06-16T13:45:21.778+0000] {local_task_job_runner.py:222} INFO - ::endgroup::
