[2024-06-16T13:45:26.786+0000] {local_task_job_runner.py:120} INFO - ::group::Pre task execution logs
[2024-06-16T13:45:26.837+0000] {taskinstance.py:2076} INFO - Dependencies all met for dep_context=non-requeueable deps ti=<TaskInstance: extract_load_dag_x18.notify_products manual__2024-06-16T13:44:59.442086+00:00 [queued]>
[2024-06-16T13:45:26.855+0000] {taskinstance.py:2076} INFO - Dependencies all met for dep_context=requeueable deps ti=<TaskInstance: extract_load_dag_x18.notify_products manual__2024-06-16T13:44:59.442086+00:00 [queued]>
[2024-06-16T13:45:26.857+0000] {taskinstance.py:2306} INFO - Starting attempt 1 of 1
[2024-06-16T13:45:26.880+0000] {taskinstance.py:2330} INFO - Executing <Task(PythonOperator): notify_products> on 2024-06-16 13:44:59.442086+00:00
[2024-06-16T13:45:26.926+0000] {warnings.py:112} WARNING - /home/***/.local/lib/python3.12/site-packages/***/task/task_runner/standard_task_runner.py:61: DeprecationWarning: This process (pid=10166) is multi-threaded, use of fork() may lead to deadlocks in the child.
  pid = os.fork()

[2024-06-16T13:45:26.937+0000] {standard_task_runner.py:63} INFO - Started process 10193 to run task
[2024-06-16T13:45:26.962+0000] {standard_task_runner.py:90} INFO - Running: ['***', 'tasks', 'run', 'extract_load_dag_x18', 'notify_products', 'manual__2024-06-16T13:44:59.442086+00:00', '--job-id', '489', '--raw', '--subdir', 'DAGS_FOLDER/dag_postgre_to_bigquery.py', '--cfg-path', '/tmp/tmppbb9f44x']
[2024-06-16T13:45:26.981+0000] {standard_task_runner.py:91} INFO - Job 489: Subtask notify_products
[2024-06-16T13:45:27.208+0000] {task_command.py:426} INFO - Running <TaskInstance: extract_load_dag_x18.notify_products manual__2024-06-16T13:44:59.442086+00:00 [running]> on host 935fe69a44b7
[2024-06-16T13:45:27.382+0000] {taskinstance.py:2648} INFO - Exporting env vars: AIRFLOW_CTX_DAG_OWNER='***' AIRFLOW_CTX_DAG_ID='extract_load_dag_x18' AIRFLOW_CTX_TASK_ID='notify_products' AIRFLOW_CTX_EXECUTION_DATE='2024-06-16T13:44:59.442086+00:00' AIRFLOW_CTX_TRY_NUMBER='1' AIRFLOW_CTX_DAG_RUN_ID='manual__2024-06-16T13:44:59.442086+00:00'
[2024-06-16T13:45:27.391+0000] {taskinstance.py:430} INFO - ::endgroup::
[2024-06-16T13:45:27.426+0000] {taskinstance.py:441} INFO - ::group::Post task execution logs
[2024-06-16T13:45:27.431+0000] {taskinstance.py:2905} ERROR - Task failed with exception
Traceback (most recent call last):
  File "/home/airflow/.local/lib/python3.12/site-packages/airflow/models/taskinstance.py", line 465, in _execute_task
    result = _execute_callable(context=context, **execute_callable_kwargs)
             ^^^^^^^^^^^^^^^^^^^^^^^^^^^^^^^^^^^^^^^^^^^^^^^^^^^^^^^^^^^^^
  File "/home/airflow/.local/lib/python3.12/site-packages/airflow/models/taskinstance.py", line 432, in _execute_callable
    return execute_callable(context=context, **execute_callable_kwargs)
           ^^^^^^^^^^^^^^^^^^^^^^^^^^^^^^^^^^^^^^^^^^^^^^^^^^^^^^^^^^^^
  File "/home/airflow/.local/lib/python3.12/site-packages/airflow/models/baseoperator.py", line 401, in wrapper
    return func(self, *args, **kwargs)
           ^^^^^^^^^^^^^^^^^^^^^^^^^^^
  File "/home/airflow/.local/lib/python3.12/site-packages/airflow/operators/python.py", line 235, in execute
    return_value = self.execute_callable()
                   ^^^^^^^^^^^^^^^^^^^^^^^
  File "/home/airflow/.local/lib/python3.12/site-packages/airflow/operators/python.py", line 252, in execute_callable
    return self.python_callable(*self.op_args, **self.op_kwargs)
           ^^^^^^^^^^^^^^^^^^^^^^^^^^^^^^^^^^^^^^^^^^^^^^^^^^^^^
  File "/opt/airflow/dags/dag_postgre_to_bigquery.py", line 62, in success_notification
    logging.info(f'Task {table} has been successfully completed.')
    ^^^^^^^
NameError: name 'logging' is not defined. Did you forget to import 'logging'
[2024-06-16T13:45:27.468+0000] {taskinstance.py:1206} INFO - Marking task as FAILED. dag_id=extract_load_dag_x18, task_id=notify_products, run_id=manual__2024-06-16T13:44:59.442086+00:00, execution_date=20240616T134459, start_date=20240616T134526, end_date=20240616T134527
[2024-06-16T13:45:27.484+0000] {standard_task_runner.py:110} ERROR - Failed to execute job 489 for task notify_products (name 'logging' is not defined; 10193)
[2024-06-16T13:45:27.542+0000] {local_task_job_runner.py:240} INFO - Task exited with return code 1
[2024-06-16T13:45:27.573+0000] {local_task_job_runner.py:222} INFO - ::endgroup::
