[2024-06-16T13:22:57.390+0000] {local_task_job_runner.py:120} INFO - ::group::Pre task execution logs
[2024-06-16T13:22:57.440+0000] {taskinstance.py:2076} INFO - Dependencies all met for dep_context=non-requeueable deps ti=<TaskInstance: extract_load_dag_x14.extract_products manual__2024-06-16T13:22:49.004089+00:00 [queued]>
[2024-06-16T13:22:57.456+0000] {taskinstance.py:2076} INFO - Dependencies all met for dep_context=requeueable deps ti=<TaskInstance: extract_load_dag_x14.extract_products manual__2024-06-16T13:22:49.004089+00:00 [queued]>
[2024-06-16T13:22:57.457+0000] {taskinstance.py:2306} INFO - Starting attempt 1 of 1
[2024-06-16T13:22:57.481+0000] {taskinstance.py:2330} INFO - Executing <Task(PythonOperator): extract_products> on 2024-06-16 13:22:49.004089+00:00
[2024-06-16T13:22:57.524+0000] {warnings.py:112} WARNING - /home/***/.local/lib/python3.12/site-packages/***/task/task_runner/standard_task_runner.py:61: DeprecationWarning: This process (pid=9510) is multi-threaded, use of fork() may lead to deadlocks in the child.
  pid = os.fork()

[2024-06-16T13:22:57.530+0000] {standard_task_runner.py:63} INFO - Started process 9528 to run task
[2024-06-16T13:22:57.527+0000] {standard_task_runner.py:90} INFO - Running: ['***', 'tasks', 'run', 'extract_load_dag_x14', 'extract_products', 'manual__2024-06-16T13:22:49.004089+00:00', '--job-id', '361', '--raw', '--subdir', 'DAGS_FOLDER/dag_bigquery.py', '--cfg-path', '/tmp/tmp7udhk0w_']
[2024-06-16T13:22:57.533+0000] {standard_task_runner.py:91} INFO - Job 361: Subtask extract_products
[2024-06-16T13:22:57.624+0000] {task_command.py:426} INFO - Running <TaskInstance: extract_load_dag_x14.extract_products manual__2024-06-16T13:22:49.004089+00:00 [running]> on host 935fe69a44b7
[2024-06-16T13:22:57.877+0000] {taskinstance.py:2648} INFO - Exporting env vars: AIRFLOW_CTX_DAG_OWNER='***' AIRFLOW_CTX_DAG_ID='extract_load_dag_x14' AIRFLOW_CTX_TASK_ID='extract_products' AIRFLOW_CTX_EXECUTION_DATE='2024-06-16T13:22:49.004089+00:00' AIRFLOW_CTX_TRY_NUMBER='1' AIRFLOW_CTX_DAG_RUN_ID='manual__2024-06-16T13:22:49.004089+00:00'
[2024-06-16T13:22:57.886+0000] {taskinstance.py:430} INFO - ::endgroup::
[2024-06-16T13:22:57.977+0000] {base.py:84} INFO - Using connection ID 'postgres_conn' for task execution.
[2024-06-16T13:22:57.981+0000] {taskinstance.py:441} INFO - ::group::Post task execution logs
[2024-06-16T13:22:57.982+0000] {taskinstance.py:2905} ERROR - Task failed with exception
Traceback (most recent call last):
  File "/home/airflow/.local/lib/python3.12/site-packages/airflow/models/taskinstance.py", line 465, in _execute_task
    result = _execute_callable(context=context, **execute_callable_kwargs)
             ^^^^^^^^^^^^^^^^^^^^^^^^^^^^^^^^^^^^^^^^^^^^^^^^^^^^^^^^^^^^^
  File "/home/airflow/.local/lib/python3.12/site-packages/airflow/models/taskinstance.py", line 432, in _execute_callable
    return execute_callable(context=context, **execute_callable_kwargs)
           ^^^^^^^^^^^^^^^^^^^^^^^^^^^^^^^^^^^^^^^^^^^^^^^^^^^^^^^^^^^^
  File "/home/airflow/.local/lib/python3.12/site-packages/airflow/models/baseoperator.py", line 401, in wrapper
    return func(self, *args, **kwargs)
           ^^^^^^^^^^^^^^^^^^^^^^^^^^^
  File "/home/airflow/.local/lib/python3.12/site-packages/airflow/operators/python.py", line 235, in execute
    return_value = self.execute_callable()
                   ^^^^^^^^^^^^^^^^^^^^^^^
  File "/home/airflow/.local/lib/python3.12/site-packages/airflow/operators/python.py", line 252, in execute_callable
    return self.python_callable(*self.op_args, **self.op_kwargs)
           ^^^^^^^^^^^^^^^^^^^^^^^^^^^^^^^^^^^^^^^^^^^^^^^^^^^^^
  File "/opt/airflow/dags/dag_bigquery.py", line 37, in extract_data_from_postgresql
    records = pd.read_sql(query, engine, encoding='latin1')
              ^^^^^^^^^^^^^^^^^^^^^^^^^^^^^^^^^^^^^^^^^^^^^
TypeError: read_sql() got an unexpected keyword argument 'encoding'
[2024-06-16T13:22:58.043+0000] {taskinstance.py:1206} INFO - Marking task as FAILED. dag_id=extract_load_dag_x14, task_id=extract_products, run_id=manual__2024-06-16T13:22:49.004089+00:00, execution_date=20240616T132249, start_date=20240616T132257, end_date=20240616T132258
[2024-06-16T13:22:58.081+0000] {standard_task_runner.py:110} ERROR - Failed to execute job 361 for task extract_products (read_sql() got an unexpected keyword argument 'encoding'; 9528)
[2024-06-16T13:22:58.140+0000] {local_task_job_runner.py:240} INFO - Task exited with return code 1
[2024-06-16T13:22:58.189+0000] {local_task_job_runner.py:222} INFO - ::endgroup::
