[2024-06-16T13:48:54.331+0000] {local_task_job_runner.py:120} INFO - ::group::Pre task execution logs
[2024-06-16T13:48:54.373+0000] {taskinstance.py:2076} INFO - Dependencies all met for dep_context=non-requeueable deps ti=<TaskInstance: extract_load_dag_x19.load_territories manual__2024-06-16T13:48:39.570272+00:00 [queued]>
[2024-06-16T13:48:54.385+0000] {taskinstance.py:2076} INFO - Dependencies all met for dep_context=requeueable deps ti=<TaskInstance: extract_load_dag_x19.load_territories manual__2024-06-16T13:48:39.570272+00:00 [queued]>
[2024-06-16T13:48:54.388+0000] {taskinstance.py:2306} INFO - Starting attempt 1 of 1
[2024-06-16T13:48:54.421+0000] {taskinstance.py:2330} INFO - Executing <Task(PythonOperator): load_territories> on 2024-06-16 13:48:39.570272+00:00
[2024-06-16T13:48:54.459+0000] {warnings.py:112} WARNING - /home/***/.local/lib/python3.12/site-packages/***/task/task_runner/standard_task_runner.py:61: DeprecationWarning: This process (pid=10280) is multi-threaded, use of fork() may lead to deadlocks in the child.
  pid = os.fork()

[2024-06-16T13:48:54.464+0000] {standard_task_runner.py:63} INFO - Started process 10301 to run task
[2024-06-16T13:48:54.465+0000] {standard_task_runner.py:90} INFO - Running: ['***', 'tasks', 'run', 'extract_load_dag_x19', 'load_territories', 'manual__2024-06-16T13:48:39.570272+00:00', '--job-id', '512', '--raw', '--subdir', 'DAGS_FOLDER/dag_bigquery.py', '--cfg-path', '/tmp/tmp_lptl9n2']
[2024-06-16T13:48:54.473+0000] {standard_task_runner.py:91} INFO - Job 512: Subtask load_territories
[2024-06-16T13:48:54.633+0000] {task_command.py:426} INFO - Running <TaskInstance: extract_load_dag_x19.load_territories manual__2024-06-16T13:48:39.570272+00:00 [running]> on host 935fe69a44b7
[2024-06-16T13:48:54.772+0000] {taskinstance.py:2648} INFO - Exporting env vars: AIRFLOW_CTX_DAG_OWNER='***' AIRFLOW_CTX_DAG_ID='extract_load_dag_x19' AIRFLOW_CTX_TASK_ID='load_territories' AIRFLOW_CTX_EXECUTION_DATE='2024-06-16T13:48:39.570272+00:00' AIRFLOW_CTX_TRY_NUMBER='1' AIRFLOW_CTX_DAG_RUN_ID='manual__2024-06-16T13:48:39.570272+00:00'
[2024-06-16T13:48:54.778+0000] {taskinstance.py:430} INFO - ::endgroup::
[2024-06-16T13:48:54.903+0000] {base.py:84} INFO - Using connection ID 'bigquery_conn' for task execution.
[2024-06-16T13:48:59.749+0000] {python.py:237} INFO - Done. Returned value was: None
[2024-06-16T13:48:59.753+0000] {taskinstance.py:441} INFO - ::group::Post task execution logs
[2024-06-16T13:48:59.766+0000] {taskinstance.py:1206} INFO - Marking task as SUCCESS. dag_id=extract_load_dag_x19, task_id=load_territories, run_id=manual__2024-06-16T13:48:39.570272+00:00, execution_date=20240616T134839, start_date=20240616T134854, end_date=20240616T134859
[2024-06-16T13:48:59.815+0000] {local_task_job_runner.py:240} INFO - Task exited with return code 0
[2024-06-16T13:48:59.837+0000] {taskinstance.py:3503} INFO - 1 downstream tasks scheduled from follow-on schedule check
[2024-06-16T13:48:59.838+0000] {local_task_job_runner.py:222} INFO - ::endgroup::
