[2024-06-16T13:34:37.740+0000] {local_task_job_runner.py:120} INFO - ::group::Pre task execution logs
[2024-06-16T13:34:37.751+0000] {taskinstance.py:2076} INFO - Dependencies all met for dep_context=non-requeueable deps ti=<TaskInstance: extract_load_dag_x16.notify_territories manual__2024-06-16T13:34:15.698419+00:00 [queued]>
[2024-06-16T13:34:37.757+0000] {taskinstance.py:2076} INFO - Dependencies all met for dep_context=requeueable deps ti=<TaskInstance: extract_load_dag_x16.notify_territories manual__2024-06-16T13:34:15.698419+00:00 [queued]>
[2024-06-16T13:34:37.757+0000] {taskinstance.py:2306} INFO - Starting attempt 1 of 1
[2024-06-16T13:34:37.763+0000] {taskinstance.py:2330} INFO - Executing <Task(PythonOperator): notify_territories> on 2024-06-16 13:34:15.698419+00:00
[2024-06-16T13:34:37.776+0000] {warnings.py:112} WARNING - /home/***/.local/lib/python3.12/site-packages/***/task/task_runner/standard_task_runner.py:61: DeprecationWarning: This process (pid=9851) is multi-threaded, use of fork() may lead to deadlocks in the child.
  pid = os.fork()

[2024-06-16T13:34:37.786+0000] {standard_task_runner.py:63} INFO - Started process 9862 to run task
[2024-06-16T13:34:37.776+0000] {standard_task_runner.py:90} INFO - Running: ['***', 'tasks', 'run', 'extract_load_dag_x16', 'notify_territories', 'manual__2024-06-16T13:34:15.698419+00:00', '--job-id', '425', '--raw', '--subdir', 'DAGS_FOLDER/dag_bigquery.py', '--cfg-path', '/tmp/tmpglq4ece1']
[2024-06-16T13:34:37.790+0000] {standard_task_runner.py:91} INFO - Job 425: Subtask notify_territories
[2024-06-16T13:34:37.872+0000] {task_command.py:426} INFO - Running <TaskInstance: extract_load_dag_x16.notify_territories manual__2024-06-16T13:34:15.698419+00:00 [running]> on host 935fe69a44b7
[2024-06-16T13:34:37.931+0000] {taskinstance.py:2648} INFO - Exporting env vars: AIRFLOW_CTX_DAG_OWNER='***' AIRFLOW_CTX_DAG_ID='extract_load_dag_x16' AIRFLOW_CTX_TASK_ID='notify_territories' AIRFLOW_CTX_EXECUTION_DATE='2024-06-16T13:34:15.698419+00:00' AIRFLOW_CTX_TRY_NUMBER='1' AIRFLOW_CTX_DAG_RUN_ID='manual__2024-06-16T13:34:15.698419+00:00'
[2024-06-16T13:34:37.932+0000] {taskinstance.py:430} INFO - ::endgroup::
[2024-06-16T13:34:37.941+0000] {dag_bigquery.py:61} INFO - Task territories has been successfully completed.
[2024-06-16T13:34:37.942+0000] {python.py:237} INFO - Done. Returned value was: None
[2024-06-16T13:34:37.942+0000] {taskinstance.py:441} INFO - ::group::Post task execution logs
[2024-06-16T13:34:37.948+0000] {taskinstance.py:1206} INFO - Marking task as SUCCESS. dag_id=extract_load_dag_x16, task_id=notify_territories, run_id=manual__2024-06-16T13:34:15.698419+00:00, execution_date=20240616T133415, start_date=20240616T133437, end_date=20240616T133437
[2024-06-16T13:34:37.970+0000] {local_task_job_runner.py:240} INFO - Task exited with return code 0
[2024-06-16T13:34:37.981+0000] {local_task_job_runner.py:222} INFO - ::endgroup::
