[2024-06-16T11:49:14.025+0000] {local_task_job_runner.py:120} INFO - ::group::Pre task execution logs
[2024-06-16T11:49:14.033+0000] {taskinstance.py:2076} INFO - Dependencies all met for dep_context=non-requeueable deps ti=<TaskInstance: extract_load_dag_x2.extract_data manual__2024-06-16T11:49:11.011907+00:00 [queued]>
[2024-06-16T11:49:14.036+0000] {taskinstance.py:2076} INFO - Dependencies all met for dep_context=requeueable deps ti=<TaskInstance: extract_load_dag_x2.extract_data manual__2024-06-16T11:49:11.011907+00:00 [queued]>
[2024-06-16T11:49:14.036+0000] {taskinstance.py:2306} INFO - Starting attempt 1 of 1
[2024-06-16T11:49:14.042+0000] {taskinstance.py:2330} INFO - Executing <Task(PythonOperator): extract_data> on 2024-06-16 11:49:11.011907+00:00
[2024-06-16T11:49:14.047+0000] {warnings.py:112} WARNING - /home/***/.local/lib/python3.12/site-packages/***/task/task_runner/standard_task_runner.py:61: DeprecationWarning: This process (pid=8389) is multi-threaded, use of fork() may lead to deadlocks in the child.
  pid = os.fork()

[2024-06-16T11:49:14.048+0000] {standard_task_runner.py:63} INFO - Started process 8391 to run task
[2024-06-16T11:49:14.048+0000] {standard_task_runner.py:90} INFO - Running: ['***', 'tasks', 'run', 'extract_load_dag_x2', 'extract_data', 'manual__2024-06-16T11:49:11.011907+00:00', '--job-id', '342', '--raw', '--subdir', 'DAGS_FOLDER/dag_bigquery.py', '--cfg-path', '/tmp/tmpy6sugwvj']
[2024-06-16T11:49:14.050+0000] {standard_task_runner.py:91} INFO - Job 342: Subtask extract_data
[2024-06-16T11:49:14.089+0000] {task_command.py:426} INFO - Running <TaskInstance: extract_load_dag_x2.extract_data manual__2024-06-16T11:49:11.011907+00:00 [running]> on host 935fe69a44b7
[2024-06-16T11:49:14.193+0000] {taskinstance.py:2648} INFO - Exporting env vars: AIRFLOW_CTX_DAG_OWNER='***' AIRFLOW_CTX_DAG_ID='extract_load_dag_x2' AIRFLOW_CTX_TASK_ID='extract_data' AIRFLOW_CTX_EXECUTION_DATE='2024-06-16T11:49:11.011907+00:00' AIRFLOW_CTX_TRY_NUMBER='1' AIRFLOW_CTX_DAG_RUN_ID='manual__2024-06-16T11:49:11.011907+00:00'
[2024-06-16T11:49:14.195+0000] {taskinstance.py:430} INFO - ::endgroup::
[2024-06-16T11:49:14.221+0000] {taskinstance.py:441} INFO - ::group::Post task execution logs
[2024-06-16T11:49:14.226+0000] {taskinstance.py:2905} ERROR - Task failed with exception
Traceback (most recent call last):
  File "/home/airflow/.local/lib/python3.12/site-packages/airflow/models/taskinstance.py", line 465, in _execute_task
    result = _execute_callable(context=context, **execute_callable_kwargs)
             ^^^^^^^^^^^^^^^^^^^^^^^^^^^^^^^^^^^^^^^^^^^^^^^^^^^^^^^^^^^^^
  File "/home/airflow/.local/lib/python3.12/site-packages/airflow/models/taskinstance.py", line 432, in _execute_callable
    return execute_callable(context=context, **execute_callable_kwargs)
           ^^^^^^^^^^^^^^^^^^^^^^^^^^^^^^^^^^^^^^^^^^^^^^^^^^^^^^^^^^^^
  File "/home/airflow/.local/lib/python3.12/site-packages/airflow/models/baseoperator.py", line 401, in wrapper
    return func(self, *args, **kwargs)
           ^^^^^^^^^^^^^^^^^^^^^^^^^^^
  File "/home/airflow/.local/lib/python3.12/site-packages/airflow/operators/python.py", line 235, in execute
    return_value = self.execute_callable()
                   ^^^^^^^^^^^^^^^^^^^^^^^
  File "/home/airflow/.local/lib/python3.12/site-packages/airflow/operators/python.py", line 252, in execute_callable
    return self.python_callable(*self.op_args, **self.op_kwargs)
           ^^^^^^^^^^^^^^^^^^^^^^^^^^^^^^^^^^^^^^^^^^^^^^^^^^^^^
  File "/opt/airflow/dags/dag_bigquery.py", line 20, in extract_data_from_postgresql
    records = pg_hook.get_pandas_df(f'SELECT * FROM {table}')
              ^^^^^^^^^^^^^^^^^^^^^^^^^^^^^^^^^^^^^^^^^^^^^^^
  File "/home/airflow/.local/lib/python3.12/site-packages/airflow/providers/common/sql/hooks/sql.py", line 262, in get_pandas_df
    with closing(self.get_conn()) as conn:
                 ^^^^^^^^^^^^^^^
  File "/home/airflow/.local/lib/python3.12/site-packages/airflow/providers/postgres/hooks/postgres.py", line 145, in get_conn
    conn = deepcopy(self.connection or self.get_connection(conn_id))
                                       ^^^^^^^^^^^^^^^^^^^^^^^^^^^^
  File "/home/airflow/.local/lib/python3.12/site-packages/airflow/hooks/base.py", line 83, in get_connection
    conn = Connection.get_connection_from_secrets(conn_id)
           ^^^^^^^^^^^^^^^^^^^^^^^^^^^^^^^^^^^^^^^^^^^^^^^
  File "/home/airflow/.local/lib/python3.12/site-packages/airflow/models/connection.py", line 519, in get_connection_from_secrets
    raise AirflowNotFoundException(f"The conn_id `{conn_id}` isn't defined")
airflow.exceptions.AirflowNotFoundException: The conn_id `your_postgres_connection` isn't defined
[2024-06-16T11:49:14.234+0000] {taskinstance.py:1206} INFO - Marking task as FAILED. dag_id=extract_load_dag_x2, task_id=extract_data, run_id=manual__2024-06-16T11:49:11.011907+00:00, execution_date=20240616T114911, start_date=20240616T114914, end_date=20240616T114914
[2024-06-16T11:49:14.241+0000] {standard_task_runner.py:110} ERROR - Failed to execute job 342 for task extract_data (The conn_id `your_postgres_connection` isn't defined; 8391)
[2024-06-16T11:49:14.271+0000] {local_task_job_runner.py:240} INFO - Task exited with return code 1
[2024-06-16T11:49:14.283+0000] {taskinstance.py:3503} INFO - 0 downstream tasks scheduled from follow-on schedule check
[2024-06-16T11:49:14.285+0000] {local_task_job_runner.py:222} INFO - ::endgroup::
