[2024-06-17T01:45:07.796+0000] {local_task_job_runner.py:120} INFO - ::group::Pre task execution logs
[2024-06-17T01:45:07.808+0000] {taskinstance.py:2076} INFO - Dependencies all met for dep_context=non-requeueable deps ti=<TaskInstance: extract_load_dag_x20.extract_customers manual__2024-06-17T01:45:03.316664+00:00 [queued]>
[2024-06-17T01:45:07.816+0000] {taskinstance.py:2076} INFO - Dependencies all met for dep_context=requeueable deps ti=<TaskInstance: extract_load_dag_x20.extract_customers manual__2024-06-17T01:45:03.316664+00:00 [queued]>
[2024-06-17T01:45:07.816+0000] {taskinstance.py:2306} INFO - Starting attempt 1 of 4
[2024-06-17T01:45:07.834+0000] {taskinstance.py:2330} INFO - Executing <Task(PythonOperator): extract_customers> on 2024-06-17 01:45:03.316664+00:00
[2024-06-17T01:45:07.844+0000] {warnings.py:112} WARNING - /home/***/.local/lib/python3.12/site-packages/***/task/task_runner/standard_task_runner.py:61: DeprecationWarning: This process (pid=11946) is multi-threaded, use of fork() may lead to deadlocks in the child.
  pid = os.fork()

[2024-06-17T01:45:07.851+0000] {standard_task_runner.py:63} INFO - Started process 11975 to run task
[2024-06-17T01:45:07.848+0000] {standard_task_runner.py:90} INFO - Running: ['***', 'tasks', 'run', 'extract_load_dag_x20', 'extract_customers', 'manual__2024-06-17T01:45:03.316664+00:00', '--job-id', '533', '--raw', '--subdir', 'DAGS_FOLDER/dag_bigquery.py', '--cfg-path', '/tmp/tmpiwi6cell']
[2024-06-17T01:45:07.859+0000] {standard_task_runner.py:91} INFO - Job 533: Subtask extract_customers
[2024-06-17T01:45:07.929+0000] {task_command.py:426} INFO - Running <TaskInstance: extract_load_dag_x20.extract_customers manual__2024-06-17T01:45:03.316664+00:00 [running]> on host 935fe69a44b7
[2024-06-17T01:45:08.023+0000] {taskinstance.py:2648} INFO - Exporting env vars: AIRFLOW_CTX_DAG_OWNER='***' AIRFLOW_CTX_DAG_ID='extract_load_dag_x20' AIRFLOW_CTX_TASK_ID='extract_customers' AIRFLOW_CTX_EXECUTION_DATE='2024-06-17T01:45:03.316664+00:00' AIRFLOW_CTX_TRY_NUMBER='1' AIRFLOW_CTX_DAG_RUN_ID='manual__2024-06-17T01:45:03.316664+00:00'
[2024-06-17T01:45:08.025+0000] {taskinstance.py:430} INFO - ::endgroup::
[2024-06-17T01:45:08.049+0000] {base.py:84} INFO - Using connection ID 'postgres_conn' for task execution.
[2024-06-17T01:45:08.294+0000] {dag_bigquery.py:47} INFO - Successfully extracted data from table customers
[2024-06-17T01:45:08.299+0000] {python.py:237} INFO - Done. Returned value was: None
[2024-06-17T01:45:08.303+0000] {taskinstance.py:441} INFO - ::group::Post task execution logs
[2024-06-17T01:45:08.328+0000] {taskinstance.py:1206} INFO - Marking task as SUCCESS. dag_id=extract_load_dag_x20, task_id=extract_customers, run_id=manual__2024-06-17T01:45:03.316664+00:00, execution_date=20240617T014503, start_date=20240617T014507, end_date=20240617T014508
[2024-06-17T01:45:08.368+0000] {local_task_job_runner.py:240} INFO - Task exited with return code 0
[2024-06-17T01:45:08.387+0000] {local_task_job_runner.py:222} INFO - ::endgroup::
