[2024-06-17T01:45:10.105+0000] {local_task_job_runner.py:120} INFO - ::group::Pre task execution logs
[2024-06-17T01:45:10.185+0000] {taskinstance.py:2076} INFO - Dependencies all met for dep_context=non-requeueable deps ti=<TaskInstance: extract_load_dag_x20.load_categories manual__2024-06-17T01:45:03.316664+00:00 [queued]>
[2024-06-17T01:45:10.213+0000] {taskinstance.py:2076} INFO - Dependencies all met for dep_context=requeueable deps ti=<TaskInstance: extract_load_dag_x20.load_categories manual__2024-06-17T01:45:03.316664+00:00 [queued]>
[2024-06-17T01:45:10.219+0000] {taskinstance.py:2306} INFO - Starting attempt 1 of 4
[2024-06-17T01:45:10.242+0000] {taskinstance.py:2330} INFO - Executing <Task(PythonOperator): load_categories> on 2024-06-17 01:45:03.316664+00:00
[2024-06-17T01:45:10.253+0000] {warnings.py:112} WARNING - /home/***/.local/lib/python3.12/site-packages/***/task/task_runner/standard_task_runner.py:61: DeprecationWarning: This process (pid=11984) is multi-threaded, use of fork() may lead to deadlocks in the child.
  pid = os.fork()

[2024-06-17T01:45:10.258+0000] {standard_task_runner.py:63} INFO - Started process 12007 to run task
[2024-06-17T01:45:10.263+0000] {standard_task_runner.py:90} INFO - Running: ['***', 'tasks', 'run', 'extract_load_dag_x20', 'load_categories', 'manual__2024-06-17T01:45:03.316664+00:00', '--job-id', '544', '--raw', '--subdir', 'DAGS_FOLDER/dag_bigquery.py', '--cfg-path', '/tmp/tmp5rjp__lt']
[2024-06-17T01:45:10.277+0000] {standard_task_runner.py:91} INFO - Job 544: Subtask load_categories
[2024-06-17T01:45:10.377+0000] {task_command.py:426} INFO - Running <TaskInstance: extract_load_dag_x20.load_categories manual__2024-06-17T01:45:03.316664+00:00 [running]> on host 935fe69a44b7
[2024-06-17T01:45:10.502+0000] {taskinstance.py:2648} INFO - Exporting env vars: AIRFLOW_CTX_DAG_OWNER='***' AIRFLOW_CTX_DAG_ID='extract_load_dag_x20' AIRFLOW_CTX_TASK_ID='load_categories' AIRFLOW_CTX_EXECUTION_DATE='2024-06-17T01:45:03.316664+00:00' AIRFLOW_CTX_TRY_NUMBER='1' AIRFLOW_CTX_DAG_RUN_ID='manual__2024-06-17T01:45:03.316664+00:00'
[2024-06-17T01:45:10.508+0000] {taskinstance.py:430} INFO - ::endgroup::
[2024-06-17T01:45:10.587+0000] {base.py:84} INFO - Using connection ID 'bigquery_conn' for task execution.
[2024-06-17T01:45:15.748+0000] {dag_bigquery.py:70} INFO - Successfully loaded data to BigQuery table dim_categories
[2024-06-17T01:45:15.748+0000] {python.py:237} INFO - Done. Returned value was: None
[2024-06-17T01:45:15.749+0000] {taskinstance.py:441} INFO - ::group::Post task execution logs
[2024-06-17T01:45:15.755+0000] {taskinstance.py:1206} INFO - Marking task as SUCCESS. dag_id=extract_load_dag_x20, task_id=load_categories, run_id=manual__2024-06-17T01:45:03.316664+00:00, execution_date=20240617T014503, start_date=20240617T014510, end_date=20240617T014515
[2024-06-17T01:45:15.774+0000] {local_task_job_runner.py:240} INFO - Task exited with return code 0
[2024-06-17T01:45:15.793+0000] {taskinstance.py:3503} INFO - 1 downstream tasks scheduled from follow-on schedule check
[2024-06-17T01:45:15.794+0000] {local_task_job_runner.py:222} INFO - ::endgroup::
