[2024-06-16T04:10:37.512+0000] {local_task_job_runner.py:120} INFO - ::group::Pre task execution logs
[2024-06-16T04:10:37.549+0000] {taskinstance.py:2076} INFO - Dependencies all met for dep_context=non-requeueable deps ti=<TaskInstance: postgres_to_bigquery_x14.extract_regions scheduled__2024-06-15T00:00:00+00:00 [queued]>
[2024-06-16T04:10:37.567+0000] {taskinstance.py:2076} INFO - Dependencies all met for dep_context=requeueable deps ti=<TaskInstance: postgres_to_bigquery_x14.extract_regions scheduled__2024-06-15T00:00:00+00:00 [queued]>
[2024-06-16T04:10:37.567+0000] {taskinstance.py:2306} INFO - Starting attempt 1 of 2
[2024-06-16T04:10:37.578+0000] {taskinstance.py:2330} INFO - Executing <Task(PythonOperator): extract_regions> on 2024-06-15 00:00:00+00:00
[2024-06-16T04:10:37.598+0000] {warnings.py:112} WARNING - /home/***/.local/lib/python3.12/site-packages/***/task/task_runner/standard_task_runner.py:61: DeprecationWarning: This process (pid=2191) is multi-threaded, use of fork() may lead to deadlocks in the child.
  pid = os.fork()

[2024-06-16T04:10:37.610+0000] {standard_task_runner.py:63} INFO - Started process 2216 to run task
[2024-06-16T04:10:37.615+0000] {standard_task_runner.py:90} INFO - Running: ['***', 'tasks', 'run', 'postgres_to_bigquery_x14', 'extract_regions', 'scheduled__2024-06-15T00:00:00+00:00', '--job-id', '217', '--raw', '--subdir', 'DAGS_FOLDER/dag_bigquery.py', '--cfg-path', '/tmp/tmpl0hisx53']
[2024-06-16T04:10:37.624+0000] {standard_task_runner.py:91} INFO - Job 217: Subtask extract_regions
[2024-06-16T04:10:37.767+0000] {task_command.py:426} INFO - Running <TaskInstance: postgres_to_bigquery_x14.extract_regions scheduled__2024-06-15T00:00:00+00:00 [running]> on host 935fe69a44b7
[2024-06-16T04:10:37.917+0000] {taskinstance.py:2648} INFO - Exporting env vars: AIRFLOW_CTX_DAG_OWNER='***' AIRFLOW_CTX_DAG_ID='postgres_to_bigquery_x14' AIRFLOW_CTX_TASK_ID='extract_regions' AIRFLOW_CTX_EXECUTION_DATE='2024-06-15T00:00:00+00:00' AIRFLOW_CTX_TRY_NUMBER='1' AIRFLOW_CTX_DAG_RUN_ID='scheduled__2024-06-15T00:00:00+00:00'
[2024-06-16T04:10:37.921+0000] {taskinstance.py:430} INFO - ::endgroup::
[2024-06-16T04:10:37.966+0000] {base.py:84} INFO - Using connection ID 'postgres_conn' for task execution.
[2024-06-16T04:10:38.041+0000] {base.py:84} INFO - Using connection ID 'bigquery_conn' for task execution.
[2024-06-16T04:10:38.989+0000] {gcs.py:560} INFO - File /tmp/tmprkc20105 uploaded to regions.json in ds_sklola_bucket bucket
[2024-06-16T04:10:39.001+0000] {python.py:237} INFO - Done. Returned value was: None
[2024-06-16T04:10:39.002+0000] {taskinstance.py:441} INFO - ::group::Post task execution logs
[2024-06-16T04:10:39.010+0000] {taskinstance.py:1206} INFO - Marking task as SUCCESS. dag_id=postgres_to_bigquery_x14, task_id=extract_regions, run_id=scheduled__2024-06-15T00:00:00+00:00, execution_date=20240615T000000, start_date=20240616T041037, end_date=20240616T041039
[2024-06-16T04:10:39.056+0000] {local_task_job_runner.py:240} INFO - Task exited with return code 0
[2024-06-16T04:10:39.084+0000] {taskinstance.py:3503} INFO - 1 downstream tasks scheduled from follow-on schedule check
[2024-06-16T04:10:39.088+0000] {local_task_job_runner.py:222} INFO - ::endgroup::
