[2024-06-16T13:26:40.165+0000] {local_task_job_runner.py:120} INFO - ::group::Pre task execution logs
[2024-06-16T13:26:40.182+0000] {taskinstance.py:2076} INFO - Dependencies all met for dep_context=non-requeueable deps ti=<TaskInstance: extract_load_dag_x15.load_suppliers manual__2024-06-16T13:26:28.439722+00:00 [queued]>
[2024-06-16T13:26:40.192+0000] {taskinstance.py:2076} INFO - Dependencies all met for dep_context=requeueable deps ti=<TaskInstance: extract_load_dag_x15.load_suppliers manual__2024-06-16T13:26:28.439722+00:00 [queued]>
[2024-06-16T13:26:40.194+0000] {taskinstance.py:2306} INFO - Starting attempt 1 of 1
[2024-06-16T13:26:40.206+0000] {taskinstance.py:2330} INFO - Executing <Task(PythonOperator): load_suppliers> on 2024-06-16 13:26:28.439722+00:00
[2024-06-16T13:26:40.216+0000] {warnings.py:112} WARNING - /home/***/.local/lib/python3.12/site-packages/***/task/task_runner/standard_task_runner.py:61: DeprecationWarning: This process (pid=9625) is multi-threaded, use of fork() may lead to deadlocks in the child.
  pid = os.fork()

[2024-06-16T13:26:40.219+0000] {standard_task_runner.py:63} INFO - Started process 9639 to run task
[2024-06-16T13:26:40.222+0000] {standard_task_runner.py:90} INFO - Running: ['***', 'tasks', 'run', 'extract_load_dag_x15', 'load_suppliers', 'manual__2024-06-16T13:26:28.439722+00:00', '--job-id', '384', '--raw', '--subdir', 'DAGS_FOLDER/dag_bigquery.py', '--cfg-path', '/tmp/tmp1ov4u2dg']
[2024-06-16T13:26:40.233+0000] {standard_task_runner.py:91} INFO - Job 384: Subtask load_suppliers
[2024-06-16T13:26:40.350+0000] {task_command.py:426} INFO - Running <TaskInstance: extract_load_dag_x15.load_suppliers manual__2024-06-16T13:26:28.439722+00:00 [running]> on host 935fe69a44b7
[2024-06-16T13:26:40.498+0000] {taskinstance.py:2648} INFO - Exporting env vars: AIRFLOW_CTX_DAG_OWNER='***' AIRFLOW_CTX_DAG_ID='extract_load_dag_x15' AIRFLOW_CTX_TASK_ID='load_suppliers' AIRFLOW_CTX_EXECUTION_DATE='2024-06-16T13:26:28.439722+00:00' AIRFLOW_CTX_TRY_NUMBER='1' AIRFLOW_CTX_DAG_RUN_ID='manual__2024-06-16T13:26:28.439722+00:00'
[2024-06-16T13:26:40.500+0000] {taskinstance.py:430} INFO - ::endgroup::
[2024-06-16T13:26:40.546+0000] {base.py:84} INFO - Using connection ID 'bigquery_conn' for task execution.
[2024-06-16T13:26:45.278+0000] {python.py:237} INFO - Done. Returned value was: None
[2024-06-16T13:26:45.286+0000] {taskinstance.py:441} INFO - ::group::Post task execution logs
[2024-06-16T13:26:45.338+0000] {taskinstance.py:1206} INFO - Marking task as SUCCESS. dag_id=extract_load_dag_x15, task_id=load_suppliers, run_id=manual__2024-06-16T13:26:28.439722+00:00, execution_date=20240616T132628, start_date=20240616T132640, end_date=20240616T132645
[2024-06-16T13:26:45.389+0000] {local_task_job_runner.py:240} INFO - Task exited with return code 0
[2024-06-16T13:26:45.414+0000] {local_task_job_runner.py:222} INFO - ::endgroup::
