[2024-06-16T03:39:34.796+0000] {local_task_job_runner.py:120} INFO - ::group::Pre task execution logs
[2024-06-16T03:39:34.857+0000] {taskinstance.py:2076} INFO - Dependencies all met for dep_context=non-requeueable deps ti=<TaskInstance: postgres_to_bigquery_x8.extract_orders scheduled__2024-06-15T00:00:00+00:00 [queued]>
[2024-06-16T03:39:34.876+0000] {taskinstance.py:2076} INFO - Dependencies all met for dep_context=requeueable deps ti=<TaskInstance: postgres_to_bigquery_x8.extract_orders scheduled__2024-06-15T00:00:00+00:00 [queued]>
[2024-06-16T03:39:34.878+0000] {taskinstance.py:2306} INFO - Starting attempt 1 of 2
[2024-06-16T03:39:34.932+0000] {taskinstance.py:2330} INFO - Executing <Task(PythonOperator): extract_orders> on 2024-06-15 00:00:00+00:00
[2024-06-16T03:39:34.956+0000] {warnings.py:112} WARNING - /home/***/.local/lib/python3.12/site-packages/***/task/task_runner/standard_task_runner.py:61: DeprecationWarning: This process (pid=1362) is multi-threaded, use of fork() may lead to deadlocks in the child.
  pid = os.fork()

[2024-06-16T03:39:34.977+0000] {standard_task_runner.py:63} INFO - Started process 1380 to run task
[2024-06-16T03:39:34.994+0000] {standard_task_runner.py:90} INFO - Running: ['***', 'tasks', 'run', 'postgres_to_bigquery_x8', 'extract_orders', 'scheduled__2024-06-15T00:00:00+00:00', '--job-id', '80', '--raw', '--subdir', 'DAGS_FOLDER/dag_bigquery.py', '--cfg-path', '/tmp/tmp77e0zrr3']
[2024-06-16T03:39:35.011+0000] {standard_task_runner.py:91} INFO - Job 80: Subtask extract_orders
[2024-06-16T03:39:35.179+0000] {task_command.py:426} INFO - Running <TaskInstance: postgres_to_bigquery_x8.extract_orders scheduled__2024-06-15T00:00:00+00:00 [running]> on host 935fe69a44b7
[2024-06-16T03:39:35.409+0000] {taskinstance.py:2648} INFO - Exporting env vars: AIRFLOW_CTX_DAG_OWNER='***' AIRFLOW_CTX_DAG_ID='postgres_to_bigquery_x8' AIRFLOW_CTX_TASK_ID='extract_orders' AIRFLOW_CTX_EXECUTION_DATE='2024-06-15T00:00:00+00:00' AIRFLOW_CTX_TRY_NUMBER='1' AIRFLOW_CTX_DAG_RUN_ID='scheduled__2024-06-15T00:00:00+00:00'
[2024-06-16T03:39:35.421+0000] {taskinstance.py:430} INFO - ::endgroup::
[2024-06-16T03:39:35.568+0000] {base.py:84} INFO - Using connection ID 'postgres_conn' for task execution.
[2024-06-16T03:39:35.716+0000] {taskinstance.py:441} INFO - ::group::Post task execution logs
[2024-06-16T03:39:35.725+0000] {taskinstance.py:2905} ERROR - Task failed with exception
Traceback (most recent call last):
  File "/home/airflow/.local/lib/python3.12/site-packages/airflow/models/taskinstance.py", line 465, in _execute_task
    result = _execute_callable(context=context, **execute_callable_kwargs)
             ^^^^^^^^^^^^^^^^^^^^^^^^^^^^^^^^^^^^^^^^^^^^^^^^^^^^^^^^^^^^^
  File "/home/airflow/.local/lib/python3.12/site-packages/airflow/models/taskinstance.py", line 432, in _execute_callable
    return execute_callable(context=context, **execute_callable_kwargs)
           ^^^^^^^^^^^^^^^^^^^^^^^^^^^^^^^^^^^^^^^^^^^^^^^^^^^^^^^^^^^^
  File "/home/airflow/.local/lib/python3.12/site-packages/airflow/models/baseoperator.py", line 401, in wrapper
    return func(self, *args, **kwargs)
           ^^^^^^^^^^^^^^^^^^^^^^^^^^^
  File "/home/airflow/.local/lib/python3.12/site-packages/airflow/operators/python.py", line 235, in execute
    return_value = self.execute_callable()
                   ^^^^^^^^^^^^^^^^^^^^^^^
  File "/home/airflow/.local/lib/python3.12/site-packages/airflow/operators/python.py", line 252, in execute_callable
    return self.python_callable(*self.op_args, **self.op_kwargs)
           ^^^^^^^^^^^^^^^^^^^^^^^^^^^^^^^^^^^^^^^^^^^^^^^^^^^^^
  File "/opt/airflow/dags/dag_bigquery.py", line 79, in extract_and_upload_to_gcs
    json_data = "\n".join([json.dumps(record) for record in data])
                           ^^^^^^^^^^^^^^^^^^
  File "/usr/local/lib/python3.12/json/__init__.py", line 231, in dumps
    return _default_encoder.encode(obj)
           ^^^^^^^^^^^^^^^^^^^^^^^^^^^^
  File "/usr/local/lib/python3.12/json/encoder.py", line 200, in encode
    chunks = self.iterencode(o, _one_shot=True)
             ^^^^^^^^^^^^^^^^^^^^^^^^^^^^^^^^^^
  File "/usr/local/lib/python3.12/json/encoder.py", line 258, in iterencode
    return _iterencode(o, 0)
           ^^^^^^^^^^^^^^^^^
  File "/usr/local/lib/python3.12/json/encoder.py", line 180, in default
    raise TypeError(f'Object of type {o.__class__.__name__} '
TypeError: Object of type datetime is not JSON serializable
[2024-06-16T03:39:35.757+0000] {taskinstance.py:1206} INFO - Marking task as UP_FOR_RETRY. dag_id=postgres_to_bigquery_x8, task_id=extract_orders, run_id=scheduled__2024-06-15T00:00:00+00:00, execution_date=20240615T000000, start_date=20240616T033934, end_date=20240616T033935
[2024-06-16T03:39:35.838+0000] {standard_task_runner.py:110} ERROR - Failed to execute job 80 for task extract_orders (Object of type datetime is not JSON serializable; 1380)
[2024-06-16T03:39:35.876+0000] {local_task_job_runner.py:240} INFO - Task exited with return code 1
[2024-06-16T03:39:35.962+0000] {local_task_job_runner.py:222} INFO - ::endgroup::
