[2024-06-16T13:26:48.597+0000] {local_task_job_runner.py:120} INFO - ::group::Pre task execution logs
[2024-06-16T13:26:48.617+0000] {taskinstance.py:2076} INFO - Dependencies all met for dep_context=non-requeueable deps ti=<TaskInstance: extract_load_dag_x15.notify_orders manual__2024-06-16T13:26:28.439722+00:00 [queued]>
[2024-06-16T13:26:48.645+0000] {taskinstance.py:2076} INFO - Dependencies all met for dep_context=requeueable deps ti=<TaskInstance: extract_load_dag_x15.notify_orders manual__2024-06-16T13:26:28.439722+00:00 [queued]>
[2024-06-16T13:26:48.646+0000] {taskinstance.py:2306} INFO - Starting attempt 1 of 1
[2024-06-16T13:26:48.659+0000] {taskinstance.py:2330} INFO - Executing <Task(PythonOperator): notify_orders> on 2024-06-16 13:26:28.439722+00:00
[2024-06-16T13:26:48.665+0000] {warnings.py:112} WARNING - /home/***/.local/lib/python3.12/site-packages/***/task/task_runner/standard_task_runner.py:61: DeprecationWarning: This process (pid=9661) is multi-threaded, use of fork() may lead to deadlocks in the child.
  pid = os.fork()

[2024-06-16T13:26:48.667+0000] {standard_task_runner.py:63} INFO - Started process 9679 to run task
[2024-06-16T13:26:48.670+0000] {standard_task_runner.py:90} INFO - Running: ['***', 'tasks', 'run', 'extract_load_dag_x15', 'notify_orders', 'manual__2024-06-16T13:26:28.439722+00:00', '--job-id', '398', '--raw', '--subdir', 'DAGS_FOLDER/dag_bigquery.py', '--cfg-path', '/tmp/tmptew8he3q']
[2024-06-16T13:26:48.673+0000] {standard_task_runner.py:91} INFO - Job 398: Subtask notify_orders
[2024-06-16T13:26:48.753+0000] {task_command.py:426} INFO - Running <TaskInstance: extract_load_dag_x15.notify_orders manual__2024-06-16T13:26:28.439722+00:00 [running]> on host 935fe69a44b7
[2024-06-16T13:26:48.840+0000] {taskinstance.py:2648} INFO - Exporting env vars: AIRFLOW_CTX_DAG_OWNER='***' AIRFLOW_CTX_DAG_ID='extract_load_dag_x15' AIRFLOW_CTX_TASK_ID='notify_orders' AIRFLOW_CTX_EXECUTION_DATE='2024-06-16T13:26:28.439722+00:00' AIRFLOW_CTX_TRY_NUMBER='1' AIRFLOW_CTX_DAG_RUN_ID='manual__2024-06-16T13:26:28.439722+00:00'
[2024-06-16T13:26:48.842+0000] {taskinstance.py:430} INFO - ::endgroup::
[2024-06-16T13:26:48.864+0000] {taskinstance.py:441} INFO - ::group::Post task execution logs
[2024-06-16T13:26:48.878+0000] {taskinstance.py:2905} ERROR - Task failed with exception
Traceback (most recent call last):
  File "/home/airflow/.local/lib/python3.12/site-packages/airflow/models/taskinstance.py", line 465, in _execute_task
    result = _execute_callable(context=context, **execute_callable_kwargs)
             ^^^^^^^^^^^^^^^^^^^^^^^^^^^^^^^^^^^^^^^^^^^^^^^^^^^^^^^^^^^^^
  File "/home/airflow/.local/lib/python3.12/site-packages/airflow/models/taskinstance.py", line 432, in _execute_callable
    return execute_callable(context=context, **execute_callable_kwargs)
           ^^^^^^^^^^^^^^^^^^^^^^^^^^^^^^^^^^^^^^^^^^^^^^^^^^^^^^^^^^^^
  File "/home/airflow/.local/lib/python3.12/site-packages/airflow/models/baseoperator.py", line 401, in wrapper
    return func(self, *args, **kwargs)
           ^^^^^^^^^^^^^^^^^^^^^^^^^^^
  File "/home/airflow/.local/lib/python3.12/site-packages/airflow/operators/python.py", line 235, in execute
    return_value = self.execute_callable()
                   ^^^^^^^^^^^^^^^^^^^^^^^
  File "/home/airflow/.local/lib/python3.12/site-packages/airflow/operators/python.py", line 252, in execute_callable
    return self.python_callable(*self.op_args, **self.op_kwargs)
           ^^^^^^^^^^^^^^^^^^^^^^^^^^^^^^^^^^^^^^^^^^^^^^^^^^^^^
  File "/opt/airflow/dags/dag_bigquery.py", line 67, in success_notification
    return SlackWebhookOperator(
           ^^^^^^^^^^^^^^^^^^^^^
  File "/home/airflow/.local/lib/python3.12/site-packages/airflow/models/baseoperator.py", line 468, in apply_defaults
    raise AirflowException(f"missing keyword argument {missing_args.pop()!r}")
airflow.exceptions.AirflowException: missing keyword argument 'slack_webhook_conn_id'
[2024-06-16T13:26:48.893+0000] {taskinstance.py:1206} INFO - Marking task as FAILED. dag_id=extract_load_dag_x15, task_id=notify_orders, run_id=manual__2024-06-16T13:26:28.439722+00:00, execution_date=20240616T132628, start_date=20240616T132648, end_date=20240616T132648
[2024-06-16T13:26:48.908+0000] {standard_task_runner.py:110} ERROR - Failed to execute job 398 for task notify_orders (missing keyword argument 'slack_webhook_conn_id'; 9679)
[2024-06-16T13:26:48.931+0000] {local_task_job_runner.py:240} INFO - Task exited with return code 1
[2024-06-16T13:26:48.948+0000] {taskinstance.py:3503} INFO - 0 downstream tasks scheduled from follow-on schedule check
[2024-06-16T13:26:48.949+0000] {local_task_job_runner.py:222} INFO - ::endgroup::
