[2024-06-16T13:40:06.189+0000] {local_task_job_runner.py:120} INFO - ::group::Pre task execution logs
[2024-06-16T13:40:06.228+0000] {taskinstance.py:2076} INFO - Dependencies all met for dep_context=non-requeueable deps ti=<TaskInstance: extract_load_dag_x17.notify_orders manual__2024-06-16T13:39:42.888940+00:00 [queued]>
[2024-06-16T13:40:06.237+0000] {taskinstance.py:2076} INFO - Dependencies all met for dep_context=requeueable deps ti=<TaskInstance: extract_load_dag_x17.notify_orders manual__2024-06-16T13:39:42.888940+00:00 [queued]>
[2024-06-16T13:40:06.239+0000] {taskinstance.py:2306} INFO - Starting attempt 1 of 1
[2024-06-16T13:40:06.256+0000] {taskinstance.py:2330} INFO - Executing <Task(PythonOperator): notify_orders> on 2024-06-16 13:39:42.888940+00:00
[2024-06-16T13:40:06.274+0000] {warnings.py:112} WARNING - /home/***/.local/lib/python3.12/site-packages/***/task/task_runner/standard_task_runner.py:61: DeprecationWarning: This process (pid=10001) is multi-threaded, use of fork() may lead to deadlocks in the child.
  pid = os.fork()

[2024-06-16T13:40:06.291+0000] {standard_task_runner.py:63} INFO - Started process 10021 to run task
[2024-06-16T13:40:06.294+0000] {standard_task_runner.py:90} INFO - Running: ['***', 'tasks', 'run', 'extract_load_dag_x17', 'notify_orders', 'manual__2024-06-16T13:39:42.888940+00:00', '--job-id', '453', '--raw', '--subdir', 'DAGS_FOLDER/dag_bigquery.py', '--cfg-path', '/tmp/tmpko5jrcce']
[2024-06-16T13:40:06.317+0000] {standard_task_runner.py:91} INFO - Job 453: Subtask notify_orders
[2024-06-16T13:40:06.484+0000] {task_command.py:426} INFO - Running <TaskInstance: extract_load_dag_x17.notify_orders manual__2024-06-16T13:39:42.888940+00:00 [running]> on host 935fe69a44b7
[2024-06-16T13:40:06.763+0000] {taskinstance.py:2648} INFO - Exporting env vars: AIRFLOW_CTX_DAG_OWNER='***' AIRFLOW_CTX_DAG_ID='extract_load_dag_x17' AIRFLOW_CTX_TASK_ID='notify_orders' AIRFLOW_CTX_EXECUTION_DATE='2024-06-16T13:39:42.888940+00:00' AIRFLOW_CTX_TRY_NUMBER='1' AIRFLOW_CTX_DAG_RUN_ID='manual__2024-06-16T13:39:42.888940+00:00'
[2024-06-16T13:40:06.776+0000] {taskinstance.py:430} INFO - ::endgroup::
[2024-06-16T13:40:06.830+0000] {dag_bigquery.py:61} INFO - Task orders has been successfully completed.
[2024-06-16T13:40:06.832+0000] {python.py:237} INFO - Done. Returned value was: None
[2024-06-16T13:40:06.833+0000] {taskinstance.py:441} INFO - ::group::Post task execution logs
[2024-06-16T13:40:06.899+0000] {taskinstance.py:1206} INFO - Marking task as SUCCESS. dag_id=extract_load_dag_x17, task_id=notify_orders, run_id=manual__2024-06-16T13:39:42.888940+00:00, execution_date=20240616T133942, start_date=20240616T134006, end_date=20240616T134006
[2024-06-16T13:40:06.970+0000] {local_task_job_runner.py:240} INFO - Task exited with return code 0
[2024-06-16T13:40:07.007+0000] {taskinstance.py:3503} INFO - 0 downstream tasks scheduled from follow-on schedule check
[2024-06-16T13:40:07.015+0000] {local_task_job_runner.py:222} INFO - ::endgroup::
