[2024-06-16T13:26:35.389+0000] {local_task_job_runner.py:120} INFO - ::group::Pre task execution logs
[2024-06-16T13:26:35.430+0000] {taskinstance.py:2076} INFO - Dependencies all met for dep_context=non-requeueable deps ti=<TaskInstance: extract_load_dag_x15.extract_order_details manual__2024-06-16T13:26:28.439722+00:00 [queued]>
[2024-06-16T13:26:35.454+0000] {taskinstance.py:2076} INFO - Dependencies all met for dep_context=requeueable deps ti=<TaskInstance: extract_load_dag_x15.extract_order_details manual__2024-06-16T13:26:28.439722+00:00 [queued]>
[2024-06-16T13:26:35.459+0000] {taskinstance.py:2306} INFO - Starting attempt 1 of 1
[2024-06-16T13:26:35.486+0000] {taskinstance.py:2330} INFO - Executing <Task(PythonOperator): extract_order_details> on 2024-06-16 13:26:28.439722+00:00
[2024-06-16T13:26:35.506+0000] {warnings.py:112} WARNING - /home/***/.local/lib/python3.12/site-packages/***/task/task_runner/standard_task_runner.py:61: DeprecationWarning: This process (pid=9596) is multi-threaded, use of fork() may lead to deadlocks in the child.
  pid = os.fork()

[2024-06-16T13:26:35.516+0000] {standard_task_runner.py:63} INFO - Started process 9609 to run task
[2024-06-16T13:26:35.537+0000] {standard_task_runner.py:90} INFO - Running: ['***', 'tasks', 'run', 'extract_load_dag_x15', 'extract_order_details', 'manual__2024-06-16T13:26:28.439722+00:00', '--job-id', '370', '--raw', '--subdir', 'DAGS_FOLDER/dag_bigquery.py', '--cfg-path', '/tmp/tmp_iobtva1']
[2024-06-16T13:26:35.554+0000] {standard_task_runner.py:91} INFO - Job 370: Subtask extract_order_details
[2024-06-16T13:26:35.774+0000] {task_command.py:426} INFO - Running <TaskInstance: extract_load_dag_x15.extract_order_details manual__2024-06-16T13:26:28.439722+00:00 [running]> on host 935fe69a44b7
[2024-06-16T13:26:36.068+0000] {taskinstance.py:2648} INFO - Exporting env vars: AIRFLOW_CTX_DAG_OWNER='***' AIRFLOW_CTX_DAG_ID='extract_load_dag_x15' AIRFLOW_CTX_TASK_ID='extract_order_details' AIRFLOW_CTX_EXECUTION_DATE='2024-06-16T13:26:28.439722+00:00' AIRFLOW_CTX_TRY_NUMBER='1' AIRFLOW_CTX_DAG_RUN_ID='manual__2024-06-16T13:26:28.439722+00:00'
[2024-06-16T13:26:36.070+0000] {taskinstance.py:430} INFO - ::endgroup::
[2024-06-16T13:26:36.133+0000] {base.py:84} INFO - Using connection ID 'postgres_conn' for task execution.
[2024-06-16T13:26:36.472+0000] {python.py:237} INFO - Done. Returned value was: None
[2024-06-16T13:26:36.477+0000] {taskinstance.py:441} INFO - ::group::Post task execution logs
[2024-06-16T13:26:36.489+0000] {taskinstance.py:1206} INFO - Marking task as SUCCESS. dag_id=extract_load_dag_x15, task_id=extract_order_details, run_id=manual__2024-06-16T13:26:28.439722+00:00, execution_date=20240616T132628, start_date=20240616T132635, end_date=20240616T132636
[2024-06-16T13:26:36.556+0000] {local_task_job_runner.py:240} INFO - Task exited with return code 0
[2024-06-16T13:26:36.582+0000] {local_task_job_runner.py:222} INFO - ::endgroup::
