[2024-06-16T03:50:02.765+0000] {local_task_job_runner.py:120} INFO - ::group::Pre task execution logs
[2024-06-16T03:50:02.840+0000] {taskinstance.py:2076} INFO - Dependencies all met for dep_context=non-requeueable deps ti=<TaskInstance: postgres_to_bigquery_x11.extract_products scheduled__2024-06-15T00:00:00+00:00 [queued]>
[2024-06-16T03:50:02.926+0000] {taskinstance.py:2076} INFO - Dependencies all met for dep_context=requeueable deps ti=<TaskInstance: postgres_to_bigquery_x11.extract_products scheduled__2024-06-15T00:00:00+00:00 [queued]>
[2024-06-16T03:50:02.928+0000] {taskinstance.py:2306} INFO - Starting attempt 1 of 2
[2024-06-16T03:50:03.052+0000] {taskinstance.py:2330} INFO - Executing <Task(PythonOperator): extract_products> on 2024-06-15 00:00:00+00:00
[2024-06-16T03:50:03.068+0000] {warnings.py:112} WARNING - /home/***/.local/lib/python3.12/site-packages/***/task/task_runner/standard_task_runner.py:61: DeprecationWarning: This process (pid=1676) is multi-threaded, use of fork() may lead to deadlocks in the child.
  pid = os.fork()

[2024-06-16T03:50:03.187+0000] {standard_task_runner.py:63} INFO - Started process 1709 to run task
[2024-06-16T03:50:03.153+0000] {standard_task_runner.py:90} INFO - Running: ['***', 'tasks', 'run', 'postgres_to_bigquery_x11', 'extract_products', 'scheduled__2024-06-15T00:00:00+00:00', '--job-id', '142', '--raw', '--subdir', 'DAGS_FOLDER/dag_bigquery.py', '--cfg-path', '/tmp/tmprb7lzqfy']
[2024-06-16T03:50:03.206+0000] {standard_task_runner.py:91} INFO - Job 142: Subtask extract_products
[2024-06-16T03:50:03.755+0000] {task_command.py:426} INFO - Running <TaskInstance: postgres_to_bigquery_x11.extract_products scheduled__2024-06-15T00:00:00+00:00 [running]> on host 935fe69a44b7
[2024-06-16T03:50:04.116+0000] {taskinstance.py:2648} INFO - Exporting env vars: AIRFLOW_CTX_DAG_OWNER='***' AIRFLOW_CTX_DAG_ID='postgres_to_bigquery_x11' AIRFLOW_CTX_TASK_ID='extract_products' AIRFLOW_CTX_EXECUTION_DATE='2024-06-15T00:00:00+00:00' AIRFLOW_CTX_TRY_NUMBER='1' AIRFLOW_CTX_DAG_RUN_ID='scheduled__2024-06-15T00:00:00+00:00'
[2024-06-16T03:50:04.133+0000] {taskinstance.py:430} INFO - ::endgroup::
[2024-06-16T03:50:04.232+0000] {base.py:84} INFO - Using connection ID 'postgres_conn' for task execution.
[2024-06-16T03:50:04.366+0000] {base.py:84} INFO - Using connection ID 'bigquery_conn' for task execution.
[2024-06-16T03:50:05.369+0000] {gcs.py:560} INFO - File /tmp/tmp4w8wo2en uploaded to products.json in ds_sklola_bucket bucket
[2024-06-16T03:50:05.401+0000] {python.py:237} INFO - Done. Returned value was: None
[2024-06-16T03:50:05.403+0000] {taskinstance.py:441} INFO - ::group::Post task execution logs
[2024-06-16T03:50:05.420+0000] {taskinstance.py:1206} INFO - Marking task as SUCCESS. dag_id=postgres_to_bigquery_x11, task_id=extract_products, run_id=scheduled__2024-06-15T00:00:00+00:00, execution_date=20240615T000000, start_date=20240616T035002, end_date=20240616T035005
[2024-06-16T03:50:05.474+0000] {local_task_job_runner.py:240} INFO - Task exited with return code 0
[2024-06-16T03:50:05.563+0000] {taskinstance.py:3503} INFO - 1 downstream tasks scheduled from follow-on schedule check
[2024-06-16T03:50:05.565+0000] {local_task_job_runner.py:222} INFO - ::endgroup::
