[2024-06-16T03:11:50.969+0000] {local_task_job_runner.py:120} INFO - ::group::Pre task execution logs
[2024-06-16T03:11:51.006+0000] {taskinstance.py:2076} INFO - Dependencies all met for dep_context=non-requeueable deps ti=<TaskInstance: postgres_to_bigquery_x2.extract_employees scheduled__2024-06-15T00:00:00+00:00 [queued]>
[2024-06-16T03:11:51.021+0000] {taskinstance.py:2076} INFO - Dependencies all met for dep_context=requeueable deps ti=<TaskInstance: postgres_to_bigquery_x2.extract_employees scheduled__2024-06-15T00:00:00+00:00 [queued]>
[2024-06-16T03:11:51.023+0000] {taskinstance.py:2306} INFO - Starting attempt 1 of 2
[2024-06-16T03:11:51.038+0000] {taskinstance.py:2330} INFO - Executing <Task(PythonOperator): extract_employees> on 2024-06-15 00:00:00+00:00
[2024-06-16T03:11:51.070+0000] {warnings.py:112} WARNING - /home/***/.local/lib/python3.12/site-packages/***/task/task_runner/standard_task_runner.py:61: DeprecationWarning: This process (pid=858) is multi-threaded, use of fork() may lead to deadlocks in the child.
  pid = os.fork()

[2024-06-16T03:11:51.079+0000] {standard_task_runner.py:63} INFO - Started process 877 to run task
[2024-06-16T03:11:51.087+0000] {standard_task_runner.py:90} INFO - Running: ['***', 'tasks', 'run', 'postgres_to_bigquery_x2', 'extract_employees', 'scheduled__2024-06-15T00:00:00+00:00', '--job-id', '28', '--raw', '--subdir', 'DAGS_FOLDER/dag_bigquery.py', '--cfg-path', '/tmp/tmpz9tbs72_']
[2024-06-16T03:11:51.094+0000] {standard_task_runner.py:91} INFO - Job 28: Subtask extract_employees
[2024-06-16T03:11:51.545+0000] {task_command.py:426} INFO - Running <TaskInstance: postgres_to_bigquery_x2.extract_employees scheduled__2024-06-15T00:00:00+00:00 [running]> on host 935fe69a44b7
[2024-06-16T03:11:52.852+0000] {taskinstance.py:2648} INFO - Exporting env vars: AIRFLOW_CTX_DAG_OWNER='***' AIRFLOW_CTX_DAG_ID='postgres_to_bigquery_x2' AIRFLOW_CTX_TASK_ID='extract_employees' AIRFLOW_CTX_EXECUTION_DATE='2024-06-15T00:00:00+00:00' AIRFLOW_CTX_TRY_NUMBER='1' AIRFLOW_CTX_DAG_RUN_ID='scheduled__2024-06-15T00:00:00+00:00'
[2024-06-16T03:11:52.900+0000] {taskinstance.py:430} INFO - ::endgroup::
[2024-06-16T03:11:53.326+0000] {base.py:84} INFO - Using connection ID 'postgres_conn' for task execution.
[2024-06-16T03:11:53.501+0000] {taskinstance.py:441} INFO - ::group::Post task execution logs
[2024-06-16T03:11:53.511+0000] {taskinstance.py:2905} ERROR - Task failed with exception
Traceback (most recent call last):
  File "/home/airflow/.local/lib/python3.12/site-packages/airflow/models/taskinstance.py", line 465, in _execute_task
    result = _execute_callable(context=context, **execute_callable_kwargs)
             ^^^^^^^^^^^^^^^^^^^^^^^^^^^^^^^^^^^^^^^^^^^^^^^^^^^^^^^^^^^^^
  File "/home/airflow/.local/lib/python3.12/site-packages/airflow/models/taskinstance.py", line 432, in _execute_callable
    return execute_callable(context=context, **execute_callable_kwargs)
           ^^^^^^^^^^^^^^^^^^^^^^^^^^^^^^^^^^^^^^^^^^^^^^^^^^^^^^^^^^^^
  File "/home/airflow/.local/lib/python3.12/site-packages/airflow/models/baseoperator.py", line 401, in wrapper
    return func(self, *args, **kwargs)
           ^^^^^^^^^^^^^^^^^^^^^^^^^^^
  File "/home/airflow/.local/lib/python3.12/site-packages/airflow/operators/python.py", line 235, in execute
    return_value = self.execute_callable()
                   ^^^^^^^^^^^^^^^^^^^^^^^
  File "/home/airflow/.local/lib/python3.12/site-packages/airflow/operators/python.py", line 252, in execute_callable
    return self.python_callable(*self.op_args, **self.op_kwargs)
           ^^^^^^^^^^^^^^^^^^^^^^^^^^^^^^^^^^^^^^^^^^^^^^^^^^^^^
  File "/opt/airflow/dags/dag_bigquery.py", line 64, in extract_and_upload_to_gcs
    json_data = "\n".join([json.dumps(record) for record in data])
                           ^^^^^^^^^^^^^^^^^^
  File "/usr/local/lib/python3.12/json/__init__.py", line 231, in dumps
    return _default_encoder.encode(obj)
           ^^^^^^^^^^^^^^^^^^^^^^^^^^^^
  File "/usr/local/lib/python3.12/json/encoder.py", line 200, in encode
    chunks = self.iterencode(o, _one_shot=True)
             ^^^^^^^^^^^^^^^^^^^^^^^^^^^^^^^^^^
  File "/usr/local/lib/python3.12/json/encoder.py", line 258, in iterencode
    return _iterencode(o, 0)
           ^^^^^^^^^^^^^^^^^
  File "/usr/local/lib/python3.12/json/encoder.py", line 180, in default
    raise TypeError(f'Object of type {o.__class__.__name__} '
TypeError: Object of type date is not JSON serializable
[2024-06-16T03:11:54.189+0000] {taskinstance.py:1206} INFO - Marking task as UP_FOR_RETRY. dag_id=postgres_to_bigquery_x2, task_id=extract_employees, run_id=scheduled__2024-06-15T00:00:00+00:00, execution_date=20240615T000000, start_date=20240616T031151, end_date=20240616T031154
[2024-06-16T03:11:54.307+0000] {standard_task_runner.py:110} ERROR - Failed to execute job 28 for task extract_employees (Object of type date is not JSON serializable; 877)
[2024-06-16T03:11:54.363+0000] {local_task_job_runner.py:240} INFO - Task exited with return code 1
[2024-06-16T03:11:54.450+0000] {local_task_job_runner.py:222} INFO - ::endgroup::
