[2024-06-16T13:39:56.048+0000] {local_task_job_runner.py:120} INFO - ::group::Pre task execution logs
[2024-06-16T13:39:56.073+0000] {taskinstance.py:2076} INFO - Dependencies all met for dep_context=non-requeueable deps ti=<TaskInstance: extract_load_dag_x17.load_shippers manual__2024-06-16T13:39:42.888940+00:00 [queued]>
[2024-06-16T13:39:56.080+0000] {taskinstance.py:2076} INFO - Dependencies all met for dep_context=requeueable deps ti=<TaskInstance: extract_load_dag_x17.load_shippers manual__2024-06-16T13:39:42.888940+00:00 [queued]>
[2024-06-16T13:39:56.082+0000] {taskinstance.py:2306} INFO - Starting attempt 1 of 1
[2024-06-16T13:39:56.103+0000] {taskinstance.py:2330} INFO - Executing <Task(PythonOperator): load_shippers> on 2024-06-16 13:39:42.888940+00:00
[2024-06-16T13:39:56.129+0000] {warnings.py:112} WARNING - /home/***/.local/lib/python3.12/site-packages/***/task/task_runner/standard_task_runner.py:61: DeprecationWarning: This process (pid=9972) is multi-threaded, use of fork() may lead to deadlocks in the child.
  pid = os.fork()

[2024-06-16T13:39:56.133+0000] {standard_task_runner.py:63} INFO - Started process 9999 to run task
[2024-06-16T13:39:56.136+0000] {standard_task_runner.py:90} INFO - Running: ['***', 'tasks', 'run', 'extract_load_dag_x17', 'load_shippers', 'manual__2024-06-16T13:39:42.888940+00:00', '--job-id', '449', '--raw', '--subdir', 'DAGS_FOLDER/dag_bigquery.py', '--cfg-path', '/tmp/tmp_o4m4laj']
[2024-06-16T13:39:56.140+0000] {standard_task_runner.py:91} INFO - Job 449: Subtask load_shippers
[2024-06-16T13:39:56.227+0000] {task_command.py:426} INFO - Running <TaskInstance: extract_load_dag_x17.load_shippers manual__2024-06-16T13:39:42.888940+00:00 [running]> on host 935fe69a44b7
[2024-06-16T13:39:56.375+0000] {taskinstance.py:2648} INFO - Exporting env vars: AIRFLOW_CTX_DAG_OWNER='***' AIRFLOW_CTX_DAG_ID='extract_load_dag_x17' AIRFLOW_CTX_TASK_ID='load_shippers' AIRFLOW_CTX_EXECUTION_DATE='2024-06-16T13:39:42.888940+00:00' AIRFLOW_CTX_TRY_NUMBER='1' AIRFLOW_CTX_DAG_RUN_ID='manual__2024-06-16T13:39:42.888940+00:00'
[2024-06-16T13:39:56.388+0000] {taskinstance.py:430} INFO - ::endgroup::
[2024-06-16T13:39:56.506+0000] {base.py:84} INFO - Using connection ID 'bigquery_conn' for task execution.
[2024-06-16T13:40:01.809+0000] {python.py:237} INFO - Done. Returned value was: None
[2024-06-16T13:40:01.811+0000] {taskinstance.py:441} INFO - ::group::Post task execution logs
[2024-06-16T13:40:01.856+0000] {taskinstance.py:1206} INFO - Marking task as SUCCESS. dag_id=extract_load_dag_x17, task_id=load_shippers, run_id=manual__2024-06-16T13:39:42.888940+00:00, execution_date=20240616T133942, start_date=20240616T133956, end_date=20240616T134001
[2024-06-16T13:40:01.895+0000] {local_task_job_runner.py:240} INFO - Task exited with return code 0
[2024-06-16T13:40:01.926+0000] {taskinstance.py:3503} INFO - 1 downstream tasks scheduled from follow-on schedule check
[2024-06-16T13:40:01.927+0000] {local_task_job_runner.py:222} INFO - ::endgroup::
