[2024-06-16T13:09:56.563+0000] {local_task_job_runner.py:120} INFO - ::group::Pre task execution logs
[2024-06-16T13:09:56.572+0000] {taskinstance.py:2076} INFO - Dependencies all met for dep_context=non-requeueable deps ti=<TaskInstance: extract_load_dag_zx2.extract_data manual__2024-06-16T13:09:54.823939+00:00 [queued]>
[2024-06-16T13:09:56.576+0000] {taskinstance.py:2076} INFO - Dependencies all met for dep_context=requeueable deps ti=<TaskInstance: extract_load_dag_zx2.extract_data manual__2024-06-16T13:09:54.823939+00:00 [queued]>
[2024-06-16T13:09:56.577+0000] {taskinstance.py:2306} INFO - Starting attempt 1 of 1
[2024-06-16T13:09:56.583+0000] {taskinstance.py:2330} INFO - Executing <Task(PythonOperator): extract_data> on 2024-06-16 13:09:54.823939+00:00
[2024-06-16T13:09:56.587+0000] {warnings.py:112} WARNING - /home/***/.local/lib/python3.12/site-packages/***/task/task_runner/standard_task_runner.py:61: DeprecationWarning: This process (pid=9327) is multi-threaded, use of fork() may lead to deadlocks in the child.
  pid = os.fork()

[2024-06-16T13:09:56.588+0000] {standard_task_runner.py:63} INFO - Started process 9329 to run task
[2024-06-16T13:09:56.588+0000] {standard_task_runner.py:90} INFO - Running: ['***', 'tasks', 'run', 'extract_load_dag_zx2', 'extract_data', 'manual__2024-06-16T13:09:54.823939+00:00', '--job-id', '355', '--raw', '--subdir', 'DAGS_FOLDER/dag_bigquery.py', '--cfg-path', '/tmp/tmpczifj5nx']
[2024-06-16T13:09:56.590+0000] {standard_task_runner.py:91} INFO - Job 355: Subtask extract_data
[2024-06-16T13:09:56.619+0000] {task_command.py:426} INFO - Running <TaskInstance: extract_load_dag_zx2.extract_data manual__2024-06-16T13:09:54.823939+00:00 [running]> on host 935fe69a44b7
[2024-06-16T13:09:56.659+0000] {taskinstance.py:2648} INFO - Exporting env vars: AIRFLOW_CTX_DAG_OWNER='***' AIRFLOW_CTX_DAG_ID='extract_load_dag_zx2' AIRFLOW_CTX_TASK_ID='extract_data' AIRFLOW_CTX_EXECUTION_DATE='2024-06-16T13:09:54.823939+00:00' AIRFLOW_CTX_TRY_NUMBER='1' AIRFLOW_CTX_DAG_RUN_ID='manual__2024-06-16T13:09:54.823939+00:00'
[2024-06-16T13:09:56.660+0000] {taskinstance.py:430} INFO - ::endgroup::
[2024-06-16T13:09:56.673+0000] {base.py:84} INFO - Using connection ID 'postgres_conn' for task execution.
[2024-06-16T13:09:56.698+0000] {warnings.py:112} WARNING - /home/***/.local/lib/python3.12/site-packages/***/providers/common/sql/hooks/sql.py:263: UserWarning: pandas only supports SQLAlchemy connectable (engine/connection) or database string URI or sqlite3 DBAPI2 connection. Other DBAPI2 objects are not tested. Please consider using SQLAlchemy.
  return psql.read_sql(sql, con=conn, params=parameters, **kwargs)

[2024-06-16T13:09:56.713+0000] {base.py:84} INFO - Using connection ID 'postgres_conn' for task execution.
[2024-06-16T13:09:56.720+0000] {warnings.py:112} WARNING - /home/***/.local/lib/python3.12/site-packages/***/providers/common/sql/hooks/sql.py:263: UserWarning: pandas only supports SQLAlchemy connectable (engine/connection) or database string URI or sqlite3 DBAPI2 connection. Other DBAPI2 objects are not tested. Please consider using SQLAlchemy.
  return psql.read_sql(sql, con=conn, params=parameters, **kwargs)

[2024-06-16T13:09:56.723+0000] {taskinstance.py:441} INFO - ::group::Post task execution logs
[2024-06-16T13:09:56.723+0000] {taskinstance.py:2905} ERROR - Task failed with exception
Traceback (most recent call last):
  File "/home/airflow/.local/lib/python3.12/site-packages/airflow/models/taskinstance.py", line 465, in _execute_task
    result = _execute_callable(context=context, **execute_callable_kwargs)
             ^^^^^^^^^^^^^^^^^^^^^^^^^^^^^^^^^^^^^^^^^^^^^^^^^^^^^^^^^^^^^
  File "/home/airflow/.local/lib/python3.12/site-packages/airflow/models/taskinstance.py", line 432, in _execute_callable
    return execute_callable(context=context, **execute_callable_kwargs)
           ^^^^^^^^^^^^^^^^^^^^^^^^^^^^^^^^^^^^^^^^^^^^^^^^^^^^^^^^^^^^
  File "/home/airflow/.local/lib/python3.12/site-packages/airflow/models/baseoperator.py", line 401, in wrapper
    return func(self, *args, **kwargs)
           ^^^^^^^^^^^^^^^^^^^^^^^^^^^
  File "/home/airflow/.local/lib/python3.12/site-packages/airflow/operators/python.py", line 235, in execute
    return_value = self.execute_callable()
                   ^^^^^^^^^^^^^^^^^^^^^^^
  File "/home/airflow/.local/lib/python3.12/site-packages/airflow/operators/python.py", line 252, in execute_callable
    return self.python_callable(*self.op_args, **self.op_kwargs)
           ^^^^^^^^^^^^^^^^^^^^^^^^^^^^^^^^^^^^^^^^^^^^^^^^^^^^^
  File "/opt/airflow/dags/dag_bigquery.py", line 49, in extract_data_from_postgresql
    serialized_records = serialize_data(records.to_dict(orient='records'))
                         ^^^^^^^^^^^^^^^^^^^^^^^^^^^^^^^^^^^^^^^^^^^^^^^^^
  File "/opt/airflow/dags/dag_bigquery.py", line 19, in serialize_data
    return [serialize_data(item) for item in data]
            ^^^^^^^^^^^^^^^^^^^^
  File "/opt/airflow/dags/dag_bigquery.py", line 21, in serialize_data
    return {key: serialize_data(value) for key, value in data.items()}
                 ^^^^^^^^^^^^^^^^^^^^^
  File "/opt/airflow/dags/dag_bigquery.py", line 25, in serialize_data
    return data.tobytes().decode('utf-8')
           ^^^^^^^^^^^^^^^^^^^^^^^^^^^^^^
UnicodeDecodeError: 'utf-8' codec can't decode byte 0xd3 in position 0: invalid continuation byte
[2024-06-16T13:09:56.730+0000] {taskinstance.py:1206} INFO - Marking task as FAILED. dag_id=extract_load_dag_zx2, task_id=extract_data, run_id=manual__2024-06-16T13:09:54.823939+00:00, execution_date=20240616T130954, start_date=20240616T130956, end_date=20240616T130956
[2024-06-16T13:09:56.736+0000] {standard_task_runner.py:110} ERROR - Failed to execute job 355 for task extract_data ('utf-8' codec can't decode byte 0xd3 in position 0: invalid continuation byte; 9329)
[2024-06-16T13:09:56.773+0000] {local_task_job_runner.py:240} INFO - Task exited with return code 1
[2024-06-16T13:09:56.789+0000] {taskinstance.py:3503} INFO - 0 downstream tasks scheduled from follow-on schedule check
[2024-06-16T13:09:56.791+0000] {local_task_job_runner.py:222} INFO - ::endgroup::
